G04 Layer_Physical_Order=2*
G04 Layer_Color=11436288*
%FSLAX44Y44*%
%MOMM*%
G71*
G01*
G75*
%ADD19R,1.3500X1.4500*%
%ADD22R,1.4500X1.3500*%
%ADD23C,0.2032*%
%ADD24C,0.2540*%
%ADD26C,0.5080*%
%ADD27R,1.7780X1.7780*%
%ADD28C,1.7780*%
%ADD29C,1.6000*%
%ADD30C,1.9050*%
%ADD31R,1.9050X1.9050*%
%ADD32C,2.0000*%
%ADD33C,1.0000*%
%ADD34C,0.7000*%
%ADD35C,1.2700*%
%ADD36C,0.8000*%
%ADD37C,0.6600*%
%ADD38R,1.3500X1.1500*%
%ADD39R,1.1500X1.3500*%
%ADD40R,0.9000X0.8000*%
%ADD41R,2.1000X5.6000*%
%ADD42R,3.2000X2.1000*%
%ADD43R,0.9000X2.1000*%
%ADD44R,2.6000X1.1000*%
G04:AMPARAMS|DCode=45|XSize=0.55mm|YSize=1.65mm|CornerRadius=0mm|HoleSize=0mm|Usage=FLASHONLY|Rotation=135.000|XOffset=0mm|YOffset=0mm|HoleType=Round|Shape=Round|*
%AMOVALD45*
21,1,1.1000,0.5500,0.0000,0.0000,225.0*
1,1,0.5500,0.3889,0.3889*
1,1,0.5500,-0.3889,-0.3889*
%
%ADD45OVALD45*%

G04:AMPARAMS|DCode=46|XSize=0.55mm|YSize=1.65mm|CornerRadius=0mm|HoleSize=0mm|Usage=FLASHONLY|Rotation=45.000|XOffset=0mm|YOffset=0mm|HoleType=Round|Shape=Round|*
%AMOVALD46*
21,1,1.1000,0.5500,0.0000,0.0000,135.0*
1,1,0.5500,0.3889,-0.3889*
1,1,0.5500,-0.3889,0.3889*
%
%ADD46OVALD46*%

%ADD47R,1.5500X1.5500*%
%ADD48R,1.5500X2.4000*%
%ADD49R,0.6500X0.3500*%
%ADD50C,1.0000*%
%ADD51C,0.8000*%
G36*
X568244Y519893D02*
X567782Y519539D01*
X567782Y519539D01*
X563485Y515242D01*
X562357Y513773D01*
X561649Y512062D01*
X561407Y510226D01*
Y440500D01*
X561649Y438664D01*
X562357Y436954D01*
X562476Y436799D01*
Y428476D01*
X574524D01*
Y436799D01*
X574642Y436954D01*
X575351Y438664D01*
X575592Y440500D01*
Y485476D01*
X586838D01*
Y475348D01*
X585884Y474616D01*
X584622Y472971D01*
X583829Y471055D01*
X583558Y469000D01*
X583829Y466944D01*
X584622Y465029D01*
X585884Y463384D01*
X586838Y462652D01*
Y452524D01*
X585476D01*
Y428476D01*
X586838D01*
Y393431D01*
X572692Y379285D01*
X571500Y379442D01*
X569444Y379171D01*
X567529Y378378D01*
X565884Y377116D01*
X564622Y375471D01*
X563829Y373555D01*
X563558Y371500D01*
X563829Y369444D01*
X564622Y367529D01*
X565884Y365884D01*
X567529Y364622D01*
X569444Y363829D01*
X571500Y363558D01*
X573555Y363829D01*
X575471Y364622D01*
X577116Y365884D01*
X578378Y367529D01*
X579171Y369444D01*
X579442Y371500D01*
X579285Y372692D01*
X594796Y388204D01*
X595807Y389716D01*
X596161Y391500D01*
Y428476D01*
X597524D01*
Y452524D01*
X596161D01*
Y462652D01*
X597116Y463384D01*
X598378Y465029D01*
X599171Y466944D01*
X599442Y469000D01*
X599171Y471055D01*
X598378Y472971D01*
X597116Y474616D01*
X596161Y475348D01*
Y485476D01*
X609024D01*
Y492838D01*
X636569D01*
X639171Y490237D01*
X639476Y489024D01*
X639476D01*
X639476Y489024D01*
Y474976D01*
X668524D01*
Y489024D01*
X653568D01*
X641796Y500796D01*
X640284Y501807D01*
X639988Y501866D01*
X638500Y502161D01*
X609024D01*
Y507431D01*
X871588D01*
Y500274D01*
X867976D01*
Y486328D01*
X866803Y485842D01*
X865024Y487621D01*
Y500274D01*
X848476D01*
Y497108D01*
X764000D01*
X762811Y496871D01*
X761802Y496197D01*
X751802Y486197D01*
X751129Y485189D01*
X750892Y484000D01*
Y442284D01*
X751129Y441095D01*
X751802Y440087D01*
X755206Y436683D01*
X755296Y436229D01*
X754398Y435331D01*
X753898Y435430D01*
X752230Y435099D01*
X750816Y434154D01*
X749872Y432740D01*
X749540Y431073D01*
X749105Y430638D01*
X748241Y430810D01*
X746177Y430399D01*
X745503Y429949D01*
X753028Y422425D01*
X760552Y414901D01*
X761002Y415574D01*
X761413Y417638D01*
X761241Y418502D01*
X761676Y418937D01*
X763343Y419269D01*
X764757Y420213D01*
X765702Y421627D01*
X766033Y423295D01*
X765934Y423795D01*
X766832Y424693D01*
X767333Y424594D01*
X769000Y424925D01*
X770414Y425870D01*
X771359Y427284D01*
X771690Y428951D01*
X772820Y429725D01*
X773493Y429709D01*
X774267Y428936D01*
Y418662D01*
X763738Y408133D01*
X763065Y407125D01*
X762828Y405936D01*
Y395920D01*
X763065Y394731D01*
X763738Y393722D01*
X770658Y386802D01*
X771667Y386129D01*
X772856Y385892D01*
X774416D01*
X774581Y385670D01*
X775017Y385017D01*
X775113Y384953D01*
X775141Y384916D01*
X774761Y383661D01*
X762646D01*
X761694Y384614D01*
X761942Y386500D01*
X761671Y388555D01*
X760878Y390471D01*
X759616Y392116D01*
X757971Y393378D01*
X756055Y394171D01*
X754000Y394442D01*
X752114Y394194D01*
X745482Y400826D01*
X745900Y402204D01*
X746373Y402298D01*
X747787Y403243D01*
X748731Y404656D01*
X749063Y406324D01*
X748963Y406825D01*
X749861Y407723D01*
X750362Y407623D01*
X752030Y407955D01*
X753443Y408899D01*
X754388Y410313D01*
X754720Y411981D01*
X755155Y412416D01*
X756019Y412244D01*
X758083Y412655D01*
X758756Y413105D01*
X751232Y420629D01*
X743708Y428153D01*
X743258Y427480D01*
X742892Y425642D01*
X742211Y425268D01*
X741609Y425129D01*
X735489Y431249D01*
X736115Y432419D01*
X737155Y432212D01*
X739311Y432641D01*
X741138Y433862D01*
X742359Y435689D01*
X742787Y437845D01*
X742359Y440000D01*
X741138Y441827D01*
X739311Y443048D01*
X737155Y443477D01*
X736123Y443271D01*
X732024Y447371D01*
Y455666D01*
X733144Y456264D01*
X733845Y455796D01*
X736000Y455368D01*
X738155Y455796D01*
X739983Y457017D01*
X741203Y458844D01*
X741632Y461000D01*
X741203Y463155D01*
X739983Y464982D01*
X738155Y466203D01*
X736000Y466632D01*
X734968Y466427D01*
X732024Y469371D01*
Y483774D01*
X715476D01*
Y466226D01*
X726379D01*
X730573Y462032D01*
X730368Y461000D01*
X730558Y460044D01*
X729516Y458774D01*
X715476D01*
Y441226D01*
X729379D01*
X731728Y438876D01*
X731523Y437845D01*
X731952Y435689D01*
X732923Y434236D01*
X732568Y433415D01*
X732286Y433044D01*
X717274D01*
Y438524D01*
X700726D01*
Y425040D01*
X699710D01*
Y418020D01*
X718290D01*
Y425040D01*
X717274D01*
Y426828D01*
X731120D01*
X738235Y419713D01*
X738326Y419258D01*
X737428Y418360D01*
X736927Y418460D01*
X735259Y418128D01*
X733846Y417184D01*
X732901Y415770D01*
X732569Y414102D01*
X732669Y413601D01*
X731771Y412704D01*
X731270Y412803D01*
X729603Y412471D01*
X728189Y411527D01*
X727244Y410113D01*
X726912Y408445D01*
X727012Y407945D01*
X726114Y407047D01*
X725613Y407146D01*
X723946Y406814D01*
X722532Y405870D01*
X721587Y404456D01*
X721256Y402789D01*
X721587Y401121D01*
X722532Y399707D01*
X730310Y391929D01*
X731724Y390984D01*
X733391Y390653D01*
X735059Y390984D01*
X736473Y391929D01*
X737418Y393343D01*
X737512Y393815D01*
X738890Y394234D01*
X746124Y386999D01*
X746058Y386500D01*
X746329Y384444D01*
X747122Y382529D01*
X748384Y380884D01*
X750029Y379622D01*
X751944Y378829D01*
X754000Y378558D01*
X754499Y378624D01*
X757419Y375704D01*
X758932Y374693D01*
X759228Y374634D01*
X760716Y374338D01*
X782069D01*
X786158Y370250D01*
X785704Y369796D01*
X784693Y368284D01*
X784634Y367988D01*
X784338Y366500D01*
Y362029D01*
X784634Y360541D01*
X784693Y360245D01*
X785704Y358733D01*
X789890Y354547D01*
X789472Y353168D01*
X788999Y353074D01*
X787586Y352130D01*
X786641Y350716D01*
X786309Y349048D01*
X786409Y348548D01*
X785511Y347650D01*
X785010Y347749D01*
X783343Y347417D01*
X781929Y346473D01*
X780984Y345059D01*
X780652Y343391D01*
X780984Y341724D01*
X781929Y340310D01*
X789707Y332532D01*
X791121Y331587D01*
X792742Y331265D01*
X829704Y294302D01*
X830713Y293629D01*
X831902Y293392D01*
X851976D01*
Y288226D01*
X881024D01*
Y293392D01*
X899000D01*
X900189Y293629D01*
X901197Y294302D01*
X928303Y321408D01*
X929476Y320922D01*
Y311976D01*
X953524D01*
Y371024D01*
X929476D01*
Y331371D01*
X897713Y299608D01*
X881024D01*
Y304774D01*
X851976D01*
Y299608D01*
X833189D01*
X797666Y335131D01*
X798176Y336324D01*
X798275Y336387D01*
X798949Y336371D01*
X818518Y316802D01*
X819526Y316129D01*
X820716Y315892D01*
X851976D01*
Y310726D01*
X881024D01*
Y315892D01*
X883750D01*
X884939Y316129D01*
X885947Y316802D01*
X921197Y352052D01*
X921871Y353061D01*
X922108Y354250D01*
Y412713D01*
X928303Y418908D01*
X929476Y418422D01*
Y406976D01*
X953524D01*
Y466024D01*
X929476D01*
Y428871D01*
X916802Y416197D01*
X916129Y415189D01*
X915892Y414000D01*
Y355537D01*
X882463Y322108D01*
X881024D01*
Y327274D01*
X851976D01*
Y322108D01*
X822003D01*
X802794Y341317D01*
X802703Y341771D01*
X803602Y342669D01*
X804102Y342569D01*
X805770Y342901D01*
X807184Y343846D01*
X808128Y345259D01*
X808460Y346927D01*
X808895Y347362D01*
X809759Y347190D01*
X811823Y347601D01*
X812496Y348051D01*
X804972Y355575D01*
X806768Y357371D01*
X814292Y349847D01*
X814742Y350520D01*
X815047Y352052D01*
X816358Y352537D01*
X822276Y346619D01*
X823368Y345889D01*
X824657Y345633D01*
X849000D01*
X850288Y345890D01*
X851380Y346619D01*
X878631Y373869D01*
X879360Y374962D01*
X879617Y376250D01*
Y425726D01*
X881024D01*
Y442274D01*
X879617D01*
Y452726D01*
X884524D01*
Y470274D01*
X867976D01*
Y452726D01*
X872883D01*
Y442274D01*
X867540D01*
Y443290D01*
X860520D01*
Y434000D01*
Y424710D01*
X867540D01*
Y425726D01*
X872883D01*
Y377644D01*
X847605Y352367D01*
X839558D01*
X839277Y353637D01*
X840827Y354673D01*
X842048Y356500D01*
X842477Y358655D01*
X842048Y360811D01*
X840827Y362638D01*
X839000Y363859D01*
X836844Y364287D01*
X835813Y364082D01*
X830963Y368931D01*
X831087Y369554D01*
X830988Y370055D01*
X831886Y370953D01*
X832386Y370854D01*
X834054Y371185D01*
X835468Y372130D01*
X836412Y373544D01*
X836744Y375211D01*
X836412Y376879D01*
X835468Y378293D01*
X827690Y386071D01*
X826276Y387015D01*
X824608Y387347D01*
X822941Y387015D01*
X821527Y386071D01*
X820582Y384657D01*
X820250Y382990D01*
X820350Y382489D01*
X819452Y381591D01*
X818951Y381690D01*
X817284Y381359D01*
X815870Y380414D01*
X814925Y379000D01*
X814594Y377333D01*
X814158Y376898D01*
X813295Y377069D01*
X811230Y376659D01*
X810557Y376209D01*
X818082Y368685D01*
X816286Y366889D01*
X808761Y374413D01*
X808311Y373740D01*
X808275Y373558D01*
X807060Y373189D01*
X802953Y377296D01*
X801441Y378307D01*
X801145Y378366D01*
X799657Y378661D01*
X796500D01*
X794716Y378307D01*
X793204Y377296D01*
X792296D01*
X787296Y382296D01*
X785784Y383307D01*
X785488Y383366D01*
X784000Y383661D01*
X783239D01*
X782854Y384931D01*
X782982Y385017D01*
X784203Y386844D01*
X784632Y389000D01*
X784203Y391155D01*
X782982Y392982D01*
X781155Y394203D01*
X779000Y394632D01*
X776844Y394203D01*
X775017Y392982D01*
X773401Y392850D01*
X770751Y395499D01*
X771561Y396486D01*
X771844Y396296D01*
X774000Y395868D01*
X776155Y396296D01*
X777982Y397517D01*
X779203Y399344D01*
X779632Y401500D01*
X779415Y402592D01*
X784883Y408061D01*
X786054Y407435D01*
X785868Y406500D01*
X786296Y404344D01*
X787517Y402517D01*
X789344Y401296D01*
X791500Y400868D01*
X793655Y401296D01*
X795482Y402517D01*
X796703Y404344D01*
X797132Y406500D01*
X796818Y408080D01*
X802027Y413289D01*
X802482Y413380D01*
X803380Y412481D01*
X803280Y411981D01*
X803612Y410313D01*
X804556Y408899D01*
X805970Y407955D01*
X807638Y407623D01*
X808138Y407723D01*
X809036Y406825D01*
X808937Y406324D01*
X809268Y404656D01*
X810213Y403243D01*
X811627Y402298D01*
X813295Y401966D01*
X813795Y402066D01*
X814693Y401168D01*
X814594Y400667D01*
X814925Y399000D01*
X815870Y397586D01*
X817284Y396641D01*
X818951Y396309D01*
X819452Y396409D01*
X820350Y395511D01*
X820250Y395010D01*
X820582Y393343D01*
X821527Y391929D01*
X822941Y390984D01*
X824608Y390653D01*
X826276Y390984D01*
X827690Y391929D01*
X835468Y399707D01*
X836412Y401121D01*
X836744Y402789D01*
X836412Y404456D01*
X835468Y405870D01*
X834054Y406814D01*
X832386Y407146D01*
X831886Y407047D01*
X830988Y407945D01*
X831087Y408445D01*
X830756Y410113D01*
X829811Y411527D01*
X828397Y412471D01*
X826730Y412803D01*
X826229Y412704D01*
X825331Y413601D01*
X825431Y414102D01*
X825099Y415770D01*
X824154Y417184D01*
X822740Y418128D01*
X821073Y418460D01*
X820299Y419589D01*
X820315Y420263D01*
X852778Y452726D01*
X865024D01*
Y470274D01*
X848476D01*
Y457214D01*
X815369Y424108D01*
X814915Y424017D01*
X814017Y424915D01*
X814117Y425416D01*
X813785Y427084D01*
X812840Y428497D01*
X811427Y429442D01*
X809759Y429774D01*
X809258Y429674D01*
X808360Y430572D01*
X808460Y431073D01*
X808128Y432740D01*
X807184Y434154D01*
X805770Y435099D01*
X804102Y435430D01*
X803602Y435331D01*
X802703Y436229D01*
X802803Y436730D01*
X802471Y438397D01*
X801527Y439811D01*
X800113Y440756D01*
X798445Y441087D01*
X797945Y440988D01*
X797047Y441886D01*
X797146Y442387D01*
X796814Y444054D01*
X795870Y445468D01*
X794456Y446413D01*
X792788Y446744D01*
X791121Y446413D01*
X789707Y445468D01*
X781929Y437690D01*
X780984Y436276D01*
X780652Y434608D01*
X780984Y432941D01*
X781929Y431527D01*
X783343Y430582D01*
X785010Y430251D01*
X785511Y430350D01*
X786409Y429452D01*
X786309Y428951D01*
X786641Y427284D01*
X787586Y425870D01*
X788999Y424925D01*
X790667Y424594D01*
X790871Y424634D01*
X791496Y423464D01*
X774971Y406939D01*
X774000Y407132D01*
X773155Y406964D01*
X772530Y408134D01*
X779572Y415177D01*
X780246Y416185D01*
X780482Y417374D01*
Y430223D01*
X780246Y431413D01*
X779572Y432421D01*
X777338Y434655D01*
X777016Y436276D01*
X776071Y437690D01*
X768293Y445468D01*
X766879Y446413D01*
X765211Y446744D01*
X763544Y446413D01*
X762130Y445468D01*
X761185Y444054D01*
X760854Y442387D01*
X759724Y441613D01*
X759051Y441628D01*
X757108Y443571D01*
Y482713D01*
X765287Y490892D01*
X848476D01*
Y482726D01*
X861129D01*
X869552Y474302D01*
X870561Y473629D01*
X871750Y473392D01*
X890213D01*
X892726Y470879D01*
Y458476D01*
X910274D01*
Y475024D01*
X897371D01*
X895592Y476803D01*
X896078Y477976D01*
X910274D01*
Y490629D01*
X915037Y495392D01*
X925476D01*
Y492976D01*
X937524D01*
Y504024D01*
X925476D01*
Y501608D01*
X913750D01*
X912561Y501371D01*
X911552Y500697D01*
X905379Y494524D01*
X892726D01*
Y480659D01*
X891500Y479608D01*
X873037D01*
X871092Y481553D01*
X871578Y482726D01*
X884524D01*
Y500274D01*
X880911D01*
Y507431D01*
X1034407D01*
Y476684D01*
X1034072Y476427D01*
X1032403Y474252D01*
X1031354Y471718D01*
X1030996Y469000D01*
X1031354Y466281D01*
X1032403Y463748D01*
X1034072Y461572D01*
X1036248Y459903D01*
X1038781Y458854D01*
X1041500Y458496D01*
X1044218Y458854D01*
X1046752Y459903D01*
X1048927Y461572D01*
X1050596Y463748D01*
X1051646Y466281D01*
X1052004Y469000D01*
X1051646Y471718D01*
X1050596Y474252D01*
X1048927Y476427D01*
X1048593Y476684D01*
Y507431D01*
X1130538D01*
X1136907Y501062D01*
Y271938D01*
X1134860Y269890D01*
X723155D01*
X722024Y270226D01*
X722024Y271161D01*
Y280264D01*
X727272Y285512D01*
X727999Y285368D01*
X730154Y285796D01*
X731982Y287017D01*
X733202Y288844D01*
X733631Y291000D01*
X733202Y293155D01*
X731982Y294982D01*
X730154Y296203D01*
X727999Y296632D01*
X725844Y296203D01*
X724016Y294982D01*
X722795Y293155D01*
X722367Y291000D01*
X722511Y290273D01*
X720012Y287774D01*
X707909D01*
X707108Y288750D01*
Y295226D01*
X722024D01*
Y312774D01*
X716858D01*
Y316806D01*
X747758Y347706D01*
X748951Y347196D01*
X749014Y347097D01*
X748999Y346423D01*
X746802Y344227D01*
X746129Y343219D01*
X745892Y342029D01*
Y311500D01*
X746129Y310311D01*
X746802Y309302D01*
X779302Y276802D01*
X780311Y276129D01*
X781500Y275892D01*
X806933D01*
X807517Y275017D01*
X809344Y273796D01*
X811500Y273368D01*
X813655Y273796D01*
X815482Y275017D01*
X816703Y276845D01*
X817132Y279000D01*
X816703Y281155D01*
X815482Y282983D01*
X813655Y284203D01*
X811500Y284632D01*
X809344Y284203D01*
X807517Y282983D01*
X806933Y282108D01*
X782787D01*
X777409Y287486D01*
X778124Y288566D01*
X779000Y288392D01*
X786933D01*
X787517Y287517D01*
X789344Y286296D01*
X791500Y285868D01*
X793655Y286296D01*
X795482Y287517D01*
X796703Y289345D01*
X797132Y291500D01*
X796703Y293655D01*
X795482Y295483D01*
X793655Y296703D01*
X791500Y297132D01*
X789344Y296703D01*
X787517Y295483D01*
X786933Y294608D01*
X780287D01*
X757108Y317787D01*
Y334428D01*
X759601Y336922D01*
X760055Y337012D01*
X760953Y336114D01*
X760854Y335613D01*
X761185Y333946D01*
X762130Y332532D01*
X763544Y331587D01*
X765211Y331256D01*
X766879Y331587D01*
X768293Y332532D01*
X769984Y334224D01*
X827969Y276238D01*
X828978Y275565D01*
X830167Y275328D01*
X1018436D01*
X1019625Y275565D01*
X1020633Y276238D01*
X1035481Y291086D01*
X1051914D01*
Y311914D01*
X1031086D01*
Y295481D01*
X1017149Y281544D01*
X894503D01*
X893839Y282814D01*
X894240Y283392D01*
X951500D01*
X952689Y283629D01*
X953697Y284302D01*
X968697Y299302D01*
X969371Y300311D01*
X969608Y301500D01*
Y464000D01*
X969371Y465189D01*
X968697Y466197D01*
X953705Y481190D01*
X954231Y482460D01*
X958540D01*
Y487730D01*
X944460D01*
Y482608D01*
X937524D01*
Y485024D01*
X925476D01*
Y473976D01*
X937524D01*
Y476392D01*
X949713D01*
X963392Y462713D01*
Y302787D01*
X950213Y289608D01*
X893567D01*
X892982Y290483D01*
X891155Y291703D01*
X889000Y292132D01*
X886844Y291703D01*
X885017Y290483D01*
X883796Y288655D01*
X883368Y286500D01*
X883796Y284345D01*
X884819Y282814D01*
X884363Y281544D01*
X831454D01*
X774379Y338619D01*
X776071Y340310D01*
X777016Y341724D01*
X777347Y343391D01*
X777016Y345059D01*
X776071Y346473D01*
X774657Y347417D01*
X772990Y347749D01*
X772489Y347650D01*
X771591Y348548D01*
X771690Y349048D01*
X771359Y350716D01*
X770414Y352130D01*
X769000Y353074D01*
X767333Y353406D01*
X766832Y353307D01*
X765934Y354204D01*
X766033Y354705D01*
X765702Y356373D01*
X764757Y357787D01*
X763343Y358731D01*
X761676Y359063D01*
X761175Y358963D01*
X760277Y359861D01*
X760377Y360362D01*
X760045Y362030D01*
X759100Y363443D01*
X757686Y364388D01*
X756019Y364720D01*
X755518Y364620D01*
X754620Y365518D01*
X754720Y366019D01*
X754388Y367687D01*
X753443Y369100D01*
X752030Y370045D01*
X750362Y370377D01*
X749861Y370277D01*
X748963Y371175D01*
X749063Y371676D01*
X748731Y373343D01*
X747787Y374757D01*
X746373Y375702D01*
X744705Y376034D01*
X744204Y375934D01*
X743307Y376832D01*
X743406Y377333D01*
X743074Y379000D01*
X742130Y380414D01*
X740716Y381359D01*
X739048Y381690D01*
X738548Y381591D01*
X737650Y382489D01*
X737749Y382990D01*
X737418Y384657D01*
X736473Y386071D01*
X735059Y387015D01*
X733391Y387347D01*
X731724Y387015D01*
X730310Y386071D01*
X722532Y378293D01*
X721587Y376879D01*
X721256Y375211D01*
X721587Y373544D01*
X722532Y372130D01*
X723946Y371185D01*
X725613Y370854D01*
X726114Y370953D01*
X727012Y370055D01*
X726912Y369554D01*
X727244Y367887D01*
X728189Y366473D01*
X729603Y365528D01*
X731270Y365197D01*
X731771Y365296D01*
X732669Y364398D01*
X732569Y363898D01*
X732901Y362230D01*
X733846Y360816D01*
X735259Y359872D01*
X736927Y359540D01*
X737154Y359585D01*
X738148Y358710D01*
X738149Y357544D01*
X719346Y338741D01*
X718655Y339203D01*
X716500Y339632D01*
X714344Y339203D01*
X712517Y337982D01*
X711296Y336155D01*
X710868Y334000D01*
X711296Y331844D01*
X712517Y330017D01*
X714344Y328796D01*
X716500Y328368D01*
X718165Y328699D01*
X718790Y327528D01*
X711552Y320290D01*
X710879Y319282D01*
X710875Y319262D01*
X709580D01*
X709203Y321155D01*
X707982Y322982D01*
X706155Y324203D01*
X704000Y324632D01*
X701844Y324203D01*
X700017Y322982D01*
X698796Y321155D01*
X698368Y319000D01*
X698796Y316845D01*
X700017Y315017D01*
X700892Y314433D01*
Y312774D01*
X685976D01*
Y295226D01*
X700892D01*
Y290037D01*
X698629Y287774D01*
X685976D01*
Y271161D01*
X685976Y270226D01*
X684845Y269890D01*
X684845D01*
X663150D01*
Y337500D01*
X663024Y338134D01*
Y349524D01*
X650976D01*
Y338134D01*
X650850Y337500D01*
Y292524D01*
X638661D01*
Y302652D01*
X639616Y303384D01*
X640878Y305029D01*
X641671Y306944D01*
X641942Y309000D01*
X641671Y311055D01*
X640878Y312971D01*
X639616Y314616D01*
X638661Y315348D01*
Y325476D01*
X640024D01*
Y349524D01*
X627976D01*
Y325476D01*
X629338D01*
Y315348D01*
X628384Y314616D01*
X627652Y313661D01*
X588186D01*
X587040Y313960D01*
X587040Y314932D01*
Y320730D01*
X555960D01*
Y313960D01*
X567231D01*
X567831Y312690D01*
X567564Y312367D01*
X467140D01*
X466153Y313653D01*
X464790Y314699D01*
X463203Y315356D01*
X461500Y315580D01*
X459797Y315356D01*
X458210Y314699D01*
X456847Y313653D01*
X455801Y312290D01*
X455144Y310703D01*
X454920Y309000D01*
X455144Y307297D01*
X455801Y305710D01*
X456847Y304347D01*
X458210Y303301D01*
X459797Y302644D01*
X461500Y302420D01*
X463203Y302644D01*
X464790Y303301D01*
X466153Y304347D01*
X467140Y305633D01*
X566838D01*
Y303024D01*
X556976D01*
Y288976D01*
X586024D01*
Y303024D01*
X576161D01*
Y304338D01*
X627652D01*
X628384Y303384D01*
X629338Y302652D01*
Y292524D01*
X616476D01*
Y269890D01*
X473140D01*
X426592Y316438D01*
Y337500D01*
X426351Y339336D01*
X425642Y341046D01*
X425524Y341201D01*
Y349524D01*
X413476D01*
Y341201D01*
X413357Y341046D01*
X412649Y339336D01*
X412407Y337500D01*
Y313500D01*
X412649Y311664D01*
X413357Y309953D01*
X414485Y308485D01*
X464863Y258106D01*
X464405Y256836D01*
X256836D01*
Y521163D01*
X567813D01*
X568244Y519893D01*
D02*
G37*
%LPC*%
G36*
X1107730Y376002D02*
X1105850Y375754D01*
X1102915Y374539D01*
X1100395Y372605D01*
X1098461Y370084D01*
X1097245Y367150D01*
X1096998Y365270D01*
X1107730D01*
Y376002D01*
D02*
G37*
G36*
X1110270D02*
Y365270D01*
X1121002D01*
X1120754Y367150D01*
X1119539Y370084D01*
X1117605Y372605D01*
X1115084Y374539D01*
X1112150Y375754D01*
X1110270Y376002D01*
D02*
G37*
G36*
X274000Y400623D02*
X270991Y400227D01*
X268188Y399066D01*
X265781Y397219D01*
X263934Y394812D01*
X262773Y392008D01*
X262376Y389000D01*
X262773Y385992D01*
X263934Y383188D01*
X265781Y380781D01*
X268188Y378934D01*
X270991Y377772D01*
X274000Y377376D01*
X277008Y377772D01*
X279812Y378934D01*
X282219Y380781D01*
X284066Y383188D01*
X285227Y385992D01*
X285623Y389000D01*
X285227Y392008D01*
X284066Y394812D01*
X282219Y397219D01*
X279812Y399066D01*
X277008Y400227D01*
X274000Y400623D01*
D02*
G37*
G36*
X618040Y350540D02*
X612270D01*
Y338770D01*
X618040D01*
Y350540D01*
D02*
G37*
G36*
X1107730Y362730D02*
X1096998D01*
X1097245Y360850D01*
X1098461Y357915D01*
X1100395Y355395D01*
X1102915Y353461D01*
X1105850Y352245D01*
X1107730Y351998D01*
Y362730D01*
D02*
G37*
G36*
X1121002D02*
X1110270D01*
Y351998D01*
X1112150Y352245D01*
X1115084Y353461D01*
X1117605Y355395D01*
X1119539Y357915D01*
X1120754Y360850D01*
X1121002Y362730D01*
D02*
G37*
G36*
X1109000Y400144D02*
X1106115Y399765D01*
X1103428Y398651D01*
X1101120Y396880D01*
X1099349Y394572D01*
X1098235Y391884D01*
X1097856Y389000D01*
X1098235Y386115D01*
X1099349Y383428D01*
X1101120Y381120D01*
X1103428Y379349D01*
X1106115Y378235D01*
X1109000Y377855D01*
X1111884Y378235D01*
X1114572Y379349D01*
X1116880Y381120D01*
X1118651Y383428D01*
X1119764Y386115D01*
X1120144Y389000D01*
X1119764Y391884D01*
X1118651Y394572D01*
X1116880Y396880D01*
X1114572Y398651D01*
X1111884Y399765D01*
X1109000Y400144D01*
D02*
G37*
G36*
X718290Y415480D02*
X710270D01*
Y408460D01*
X718290D01*
Y415480D01*
D02*
G37*
G36*
X857980Y432730D02*
X850960D01*
Y424710D01*
X857980D01*
Y432730D01*
D02*
G37*
G36*
X314000Y471622D02*
X312040Y471232D01*
X310378Y470122D01*
X309267Y468460D01*
X308878Y466500D01*
X309267Y464540D01*
X310378Y462878D01*
X312040Y461767D01*
X314000Y461377D01*
X314301Y461437D01*
X337929Y437809D01*
X339021Y437079D01*
X340310Y436823D01*
X382915D01*
X389869Y429869D01*
X390961Y429140D01*
X391622Y429008D01*
X392059Y427649D01*
X390295Y425885D01*
X389122Y426500D01*
X388732Y428460D01*
X387622Y430122D01*
X385960Y431232D01*
X384000Y431622D01*
X382040Y431232D01*
X380378Y430122D01*
X380034Y429608D01*
X377024D01*
Y435274D01*
X360476D01*
Y418912D01*
X359206Y418234D01*
X358460Y418732D01*
X357524Y418918D01*
Y435274D01*
X340976D01*
Y417726D01*
X345828D01*
Y408274D01*
X340476D01*
Y389726D01*
X357960D01*
Y388710D01*
X366980D01*
Y399000D01*
X368250D01*
Y400270D01*
X378540D01*
Y408500D01*
X379000Y408877D01*
X380960Y409267D01*
X382622Y410378D01*
X383732Y412040D01*
X384122Y414000D01*
X383732Y415960D01*
X382622Y417622D01*
X380960Y418732D01*
X379000Y419122D01*
X378294Y418982D01*
X377024Y420024D01*
Y423392D01*
X380034D01*
X380378Y422878D01*
X382040Y421767D01*
X384000Y421377D01*
X385789Y421733D01*
X386421Y421337D01*
X386914Y420877D01*
X386838Y420497D01*
Y394673D01*
X386445Y394252D01*
X386163Y394034D01*
X385655Y393793D01*
X384000Y394122D01*
X382040Y393732D01*
X380378Y392622D01*
X379810Y391772D01*
X378560Y392151D01*
X378540Y392168D01*
Y397730D01*
X369520D01*
Y388710D01*
X375155D01*
X375642Y387537D01*
X367313Y379208D01*
X310521D01*
X309819Y380903D01*
X308293Y382892D01*
X306303Y384419D01*
X303986Y385379D01*
X301500Y385706D01*
X299014Y385379D01*
X296697Y384419D01*
X294707Y382892D01*
X293181Y380903D01*
X292221Y378586D01*
X291894Y376100D01*
X292221Y373614D01*
X293181Y371297D01*
X294707Y369307D01*
X296697Y367781D01*
X299014Y366821D01*
X301500Y366494D01*
X303986Y366821D01*
X306303Y367781D01*
X308293Y369307D01*
X309819Y371297D01*
X310521Y372992D01*
X368600D01*
X369789Y373229D01*
X370797Y373902D01*
X381514Y384619D01*
X382040Y384267D01*
X384000Y383877D01*
X385960Y384267D01*
X387622Y385378D01*
X388732Y387040D01*
X389013Y388451D01*
X390333Y388927D01*
X391838Y387421D01*
Y349524D01*
X390476D01*
Y325476D01*
X391838D01*
Y313661D01*
X350686D01*
X349540Y313960D01*
X349540Y314932D01*
Y320730D01*
X335270D01*
Y313960D01*
X343908D01*
X344293Y312690D01*
X343704Y312296D01*
X334431Y303024D01*
X319476D01*
Y288976D01*
X348524D01*
Y303024D01*
X348524Y303024D01*
X348524D01*
X349044Y304081D01*
X349245Y304338D01*
X391838D01*
Y292524D01*
X378976D01*
Y268476D01*
X414024D01*
Y292524D01*
X401161D01*
Y309000D01*
Y325476D01*
X402524D01*
Y349524D01*
X401161D01*
Y389352D01*
X400866Y390840D01*
X400807Y391136D01*
X399796Y392649D01*
X396161Y396283D01*
Y408161D01*
X397431Y408546D01*
X397878Y407878D01*
X399540Y406767D01*
X401500Y406377D01*
X403460Y406767D01*
X405122Y407878D01*
X406232Y409540D01*
X406622Y411500D01*
X406232Y413460D01*
X405400Y414706D01*
X405774Y415976D01*
X405774D01*
X405774Y415976D01*
Y422476D01*
Y428976D01*
Y435476D01*
Y442024D01*
X402121D01*
X392947Y451197D01*
X391939Y451871D01*
X390750Y452108D01*
X387966D01*
X387622Y452622D01*
X385960Y453732D01*
X384000Y454122D01*
X382040Y453732D01*
X380378Y452622D01*
X379267Y450960D01*
X378877Y449000D01*
X379267Y447040D01*
X380378Y445378D01*
X381203Y444827D01*
X380817Y443557D01*
X341704D01*
X319062Y466199D01*
X319122Y466500D01*
X318732Y468460D01*
X317622Y470122D01*
X315960Y471232D01*
X314000Y471622D01*
D02*
G37*
G36*
X301500Y411106D02*
X299014Y410779D01*
X296697Y409819D01*
X294707Y408293D01*
X293181Y406303D01*
X292221Y403986D01*
X291894Y401500D01*
X292221Y399014D01*
X293181Y396697D01*
X294707Y394707D01*
X296697Y393181D01*
X299014Y392221D01*
X301500Y391894D01*
X303986Y392221D01*
X306303Y393181D01*
X308293Y394707D01*
X309819Y396697D01*
X310779Y399014D01*
X311106Y401500D01*
X310779Y403986D01*
X309819Y406303D01*
X308293Y408293D01*
X306303Y409819D01*
X303986Y410779D01*
X301500Y411106D01*
D02*
G37*
G36*
X1120049Y425049D02*
X1097951D01*
Y402951D01*
X1120049D01*
Y425049D01*
D02*
G37*
G36*
X707730Y415480D02*
X699710D01*
Y408460D01*
X707730D01*
Y415480D01*
D02*
G37*
G36*
X349540Y330040D02*
X335270D01*
Y323270D01*
X349540D01*
Y330040D01*
D02*
G37*
G36*
X570230D02*
X555960D01*
Y323270D01*
X570230D01*
Y330040D01*
D02*
G37*
G36*
X587040D02*
X572770D01*
Y323270D01*
X587040D01*
Y330040D01*
D02*
G37*
G36*
X1066500Y312004D02*
X1063781Y311646D01*
X1061248Y310597D01*
X1059073Y308927D01*
X1057403Y306752D01*
X1056354Y304219D01*
X1055996Y301500D01*
X1056354Y298781D01*
X1057403Y296248D01*
X1059073Y294072D01*
X1061248Y292403D01*
X1063781Y291354D01*
X1066500Y290996D01*
X1069219Y291354D01*
X1071752Y292403D01*
X1073927Y294072D01*
X1075596Y296248D01*
X1076646Y298781D01*
X1077004Y301500D01*
X1076646Y304219D01*
X1075596Y306752D01*
X1073927Y308927D01*
X1071752Y310597D01*
X1069219Y311646D01*
X1066500Y312004D01*
D02*
G37*
G36*
X332730Y320730D02*
X318460D01*
Y313960D01*
X332730D01*
Y320730D01*
D02*
G37*
G36*
Y330040D02*
X318460D01*
Y323270D01*
X332730D01*
Y330040D01*
D02*
G37*
G36*
X372230Y336230D02*
X366460D01*
Y324460D01*
X372230D01*
Y336230D01*
D02*
G37*
G36*
Y350540D02*
X366460D01*
Y338770D01*
X372230D01*
Y350540D01*
D02*
G37*
G36*
X380540D02*
X374770D01*
Y338770D01*
X380540D01*
Y350540D01*
D02*
G37*
G36*
X609730D02*
X603960D01*
Y338770D01*
X609730D01*
Y350540D01*
D02*
G37*
G36*
X380540Y336230D02*
X374770D01*
Y324460D01*
X380540D01*
Y336230D01*
D02*
G37*
G36*
X609730D02*
X603960D01*
Y324460D01*
X609730D01*
Y336230D01*
D02*
G37*
G36*
X618040D02*
X612270D01*
Y324460D01*
X618040D01*
Y336230D01*
D02*
G37*
G36*
X613230Y439230D02*
X607460D01*
Y427460D01*
X613230D01*
Y439230D01*
D02*
G37*
G36*
X1077930Y480430D02*
X1067770D01*
Y470270D01*
X1077930D01*
Y480430D01*
D02*
G37*
G36*
X482230Y485230D02*
X474210D01*
Y476710D01*
X482230D01*
Y485230D01*
D02*
G37*
G36*
X492790D02*
X484770D01*
Y476710D01*
X492790D01*
Y485230D01*
D02*
G37*
G36*
X1077930Y467730D02*
X1067770D01*
Y457570D01*
X1077930D01*
Y467730D01*
D02*
G37*
G36*
X350480Y465790D02*
X343460D01*
Y457770D01*
X350480D01*
Y465790D01*
D02*
G37*
G36*
X1065230Y480430D02*
X1055070D01*
Y470270D01*
X1065230D01*
Y480430D01*
D02*
G37*
G36*
X349000Y512132D02*
X346844Y511703D01*
X345017Y510482D01*
X343796Y508655D01*
X343368Y506500D01*
X343796Y504344D01*
X345017Y502517D01*
X346142Y501766D01*
Y495274D01*
X340976D01*
Y477726D01*
X357524D01*
Y495274D01*
X352358D01*
Y502100D01*
X352982Y502517D01*
X354203Y504344D01*
X354632Y506500D01*
X354203Y508655D01*
X352982Y510482D01*
X351155Y511703D01*
X349000Y512132D01*
D02*
G37*
G36*
X492790Y496290D02*
X484770D01*
Y487770D01*
X492790D01*
Y496290D01*
D02*
G37*
G36*
X950230Y495540D02*
X944460D01*
Y490270D01*
X950230D01*
Y495540D01*
D02*
G37*
G36*
X958540D02*
X952770D01*
Y490270D01*
X958540D01*
Y495540D01*
D02*
G37*
G36*
X459000Y502108D02*
X411500D01*
X410311Y501871D01*
X409302Y501197D01*
X403379Y495274D01*
X398476D01*
Y490621D01*
X383750Y475895D01*
X377024Y482621D01*
Y495274D01*
X360476D01*
Y477726D01*
X373129D01*
X378720Y472135D01*
Y470865D01*
X372629Y464774D01*
X360040D01*
Y465790D01*
X353020D01*
Y456500D01*
Y447210D01*
X360040D01*
Y448226D01*
X373524D01*
Y457246D01*
X373564Y457254D01*
X374572Y457928D01*
X385947Y469302D01*
X385947Y469302D01*
X385947Y469302D01*
X397303Y480658D01*
X398476Y480172D01*
Y477726D01*
X415024D01*
Y495274D01*
X416038Y495892D01*
X416962D01*
X417976Y495274D01*
X417976Y494622D01*
Y477726D01*
X430629D01*
X455726Y452629D01*
Y445226D01*
X461392D01*
Y431672D01*
X460494Y430774D01*
X455878D01*
X455633Y430774D01*
X454851Y431327D01*
X454555Y431766D01*
X454371Y432689D01*
X453697Y433697D01*
X446447Y440947D01*
X445439Y441621D01*
X444250Y441858D01*
X436774D01*
Y442024D01*
X427226D01*
Y435476D01*
Y431235D01*
X427135Y431127D01*
X426621Y431128D01*
X425774Y431933D01*
Y442524D01*
X407226D01*
Y415476D01*
X425774D01*
Y419567D01*
X426621Y420372D01*
X427135Y420372D01*
X427226Y420265D01*
Y415976D01*
X428633D01*
Y410528D01*
X412107Y394002D01*
X411500Y394122D01*
X409540Y393732D01*
X407878Y392622D01*
X406767Y390960D01*
X406377Y389000D01*
X406767Y387040D01*
X407878Y385378D01*
X409540Y384267D01*
X411500Y383877D01*
X413460Y384267D01*
X415122Y385378D01*
X416232Y387040D01*
X416622Y389000D01*
X416502Y389607D01*
X433283Y406389D01*
X433288Y406390D01*
X434380Y407119D01*
X435110Y408212D01*
X435367Y409500D01*
Y415976D01*
X436774D01*
Y421460D01*
X437790D01*
Y424480D01*
X432000D01*
Y427020D01*
X437790D01*
Y429142D01*
X439463D01*
X443392Y425213D01*
Y379000D01*
X443629Y377811D01*
X444302Y376802D01*
X459642Y361463D01*
Y353567D01*
X458767Y352982D01*
X457546Y351155D01*
X457118Y349000D01*
X457546Y346844D01*
X458767Y345017D01*
X460594Y343796D01*
X462750Y343368D01*
X464905Y343796D01*
X466732Y345017D01*
X467953Y346844D01*
X468382Y349000D01*
X467953Y351155D01*
X466732Y352982D01*
X465858Y353567D01*
Y362750D01*
X465621Y363939D01*
X464947Y364947D01*
X449608Y380287D01*
Y397338D01*
X450781Y397824D01*
X455726Y392879D01*
Y380226D01*
X472274D01*
Y397774D01*
X459621D01*
X454608Y402787D01*
Y411212D01*
X455226Y412226D01*
X455878Y412226D01*
X480392D01*
Y397774D01*
X475226D01*
Y380226D01*
X491774D01*
Y397774D01*
X486608D01*
Y412226D01*
X492274D01*
Y430774D01*
X467608D01*
Y445226D01*
X472274D01*
Y462774D01*
X455726D01*
X455726Y462774D01*
Y462774D01*
X454566Y462579D01*
X434524Y482621D01*
Y494622D01*
X434524Y495274D01*
X435538Y495892D01*
X435538Y495892D01*
X454712D01*
X455726Y495274D01*
Y477726D01*
X472274D01*
Y495274D01*
X466814D01*
X466197Y496197D01*
X461197Y501197D01*
X460189Y501871D01*
X459000Y502108D01*
D02*
G37*
G36*
X712524Y483774D02*
X695976D01*
Y478367D01*
X690000D01*
X690000Y478367D01*
X688711Y478110D01*
X687619Y477380D01*
X681619Y471381D01*
X680890Y470288D01*
X680633Y469000D01*
Y337894D01*
X672226Y329488D01*
X671500Y329632D01*
X669344Y329203D01*
X667517Y327982D01*
X666296Y326155D01*
X665868Y324000D01*
X666296Y321844D01*
X667517Y320017D01*
X669344Y318796D01*
X671500Y318368D01*
X673655Y318796D01*
X675482Y320017D01*
X676703Y321844D01*
X677132Y324000D01*
X676988Y324726D01*
X686380Y334119D01*
X687110Y335211D01*
X687367Y336500D01*
Y446633D01*
X695976D01*
Y441226D01*
X712524D01*
Y458774D01*
X695976D01*
Y453367D01*
X687367D01*
Y467605D01*
X691394Y471633D01*
X695976D01*
Y466226D01*
X712524D01*
Y483774D01*
D02*
G37*
G36*
X482230Y496290D02*
X474210D01*
Y487770D01*
X482230D01*
Y496290D01*
D02*
G37*
G36*
X1065230Y467730D02*
X1055070D01*
Y457570D01*
X1065230D01*
Y467730D01*
D02*
G37*
G36*
X621540Y453540D02*
X615770D01*
Y441770D01*
X621540D01*
Y453540D01*
D02*
G37*
G36*
X482230Y452730D02*
X474210D01*
Y444210D01*
X482230D01*
Y452730D01*
D02*
G37*
G36*
X492790D02*
X484770D01*
Y444210D01*
X492790D01*
Y452730D01*
D02*
G37*
G36*
X621540Y439230D02*
X615770D01*
Y427460D01*
X621540D01*
Y439230D01*
D02*
G37*
G36*
X857980Y443290D02*
X850960D01*
Y435270D01*
X857980D01*
Y443290D01*
D02*
G37*
G36*
X613230Y453540D02*
X607460D01*
Y441770D01*
X613230D01*
Y453540D01*
D02*
G37*
G36*
X350480Y455230D02*
X343460D01*
Y447210D01*
X350480D01*
Y455230D01*
D02*
G37*
G36*
X492790Y463790D02*
X484770D01*
Y455270D01*
X492790D01*
Y463790D01*
D02*
G37*
G36*
X652730Y464040D02*
X638460D01*
Y457270D01*
X652730D01*
Y464040D01*
D02*
G37*
G36*
X669540D02*
X655270D01*
Y457270D01*
X669540D01*
Y464040D01*
D02*
G37*
G36*
X652730Y454730D02*
X638460D01*
Y447960D01*
X652730D01*
Y454730D01*
D02*
G37*
G36*
X669540D02*
X655270D01*
Y447960D01*
X669540D01*
Y454730D01*
D02*
G37*
G36*
X482230Y463790D02*
X474210D01*
Y455270D01*
X482230D01*
Y463790D01*
D02*
G37*
%LPD*%
D19*
X713750Y304000D02*
D03*
X694250D02*
D03*
X713750Y279000D02*
D03*
X694250D02*
D03*
X723750Y475000D02*
D03*
X704250D02*
D03*
X723750Y450000D02*
D03*
X704250D02*
D03*
X876250Y491500D02*
D03*
X856750D02*
D03*
X876250Y461500D02*
D03*
X856750D02*
D03*
X349250Y486500D02*
D03*
X368750D02*
D03*
X483500D02*
D03*
X464000D02*
D03*
X426250D02*
D03*
X406750D02*
D03*
X464000Y454000D02*
D03*
X483500D02*
D03*
X464000Y389000D02*
D03*
X483500D02*
D03*
X368750Y426500D02*
D03*
X349250D02*
D03*
D22*
X901500Y466750D02*
D03*
Y486250D02*
D03*
D23*
X411500Y499000D02*
X459000D01*
X397625Y485125D02*
X411500Y499000D01*
X723750Y473250D02*
X736000Y461000D01*
X723750Y473250D02*
Y475000D01*
X725000Y450000D02*
X737155Y437845D01*
X723750Y450000D02*
X725000D01*
X379000Y414000D02*
X379000Y414000D01*
X356500D02*
X379000D01*
X401500Y411500D02*
Y418750D01*
X1018436Y278436D02*
X1041500Y301500D01*
X769100Y339502D02*
X830167Y278436D01*
X1018436D01*
X889000Y286500D02*
X951500D01*
X732407Y429936D02*
X746473Y415870D01*
X710314Y429936D02*
X732407D01*
X709000Y431250D02*
X710314Y429936D01*
X765936Y395920D02*
Y405936D01*
Y395920D02*
X772856Y389000D01*
X779000D01*
X822840Y372659D02*
X836844Y358655D01*
X446500Y379000D02*
X462750Y362750D01*
Y349000D02*
Y362750D01*
X348936Y399814D02*
Y426186D01*
Y399814D02*
X349250Y399500D01*
X348936Y426186D02*
X349250Y426500D01*
X381500Y389000D02*
X384000D01*
X368600Y376100D02*
X381500Y389000D01*
X719000Y334000D02*
X747130Y362130D01*
X716500Y334000D02*
X719000D01*
X483500Y389000D02*
Y421000D01*
X451500Y401500D02*
X464000Y389000D01*
X451500Y401500D02*
Y431500D01*
X446500Y379000D02*
Y426500D01*
X411500Y389000D02*
X432000Y409500D01*
X966500Y301500D02*
Y464000D01*
X951500Y286500D02*
X966500Y301500D01*
X694250Y304000D02*
X704000D01*
X694250Y279000D02*
X704000Y288750D01*
Y304000D01*
Y319000D01*
X713750Y318093D02*
X752130Y356473D01*
X713750Y304000D02*
Y318093D01*
X749000Y311500D02*
X781500Y279000D01*
X749000Y311500D02*
Y342029D01*
X781500Y279000D02*
X811500D01*
X779000Y291500D02*
X791500D01*
X754000Y316500D02*
X779000Y291500D01*
X754000Y316500D02*
Y335716D01*
X873750Y319000D02*
X883750D01*
X889000Y296500D02*
X899000D01*
X831902D02*
X859250D01*
X788899Y339502D02*
X831902Y296500D01*
X856750Y319000D02*
X859250Y316500D01*
X820716Y319000D02*
X856750D01*
X794556Y345159D02*
X820716Y319000D01*
X444250Y438750D02*
X451500Y431500D01*
X440750Y432250D02*
X446500Y426500D01*
X432000Y432250D02*
X440750D01*
X951000Y479500D02*
X966500Y464000D01*
X931500Y479500D02*
X951000D01*
X856750Y491500D02*
X871750Y476500D01*
X891500D01*
X901250Y466750D01*
X901500D01*
Y486250D02*
X913750Y498500D01*
X931500D01*
X764000Y494000D02*
X854250D01*
X754000Y484000D02*
X764000Y494000D01*
X746473Y362130D02*
X747130D01*
X919000Y414000D02*
X941500Y436500D01*
X919000Y354250D02*
Y414000D01*
X883750Y319000D02*
X919000Y354250D01*
X941500Y339000D02*
Y341500D01*
X899000Y296500D02*
X941500Y339000D01*
X749000Y342029D02*
X757787Y350816D01*
X754000Y335716D02*
X763444Y345159D01*
X777374Y417374D02*
Y430223D01*
X769100Y438497D02*
X777374Y430223D01*
X765936Y405936D02*
X777374Y417374D01*
X774000Y401572D02*
X799611Y427184D01*
X791500Y406500D02*
Y407157D01*
X774000Y401500D02*
Y401572D01*
X791500Y407157D02*
X805870Y421527D01*
X811527Y415870D02*
X856750Y461093D01*
X384000Y449000D02*
X390750D01*
X401000Y438750D01*
X368750Y426500D02*
X384000D01*
X301500Y376100D02*
X368600D01*
X432000Y409500D02*
X432000D01*
X349250Y486500D02*
Y506250D01*
X349000Y506500D02*
X349250Y506250D01*
X459000Y499000D02*
X464000Y494000D01*
X754000Y442284D02*
Y484000D01*
Y442284D02*
X763444Y432840D01*
X873750Y296500D02*
X889000D01*
X368750Y486500D02*
X383750Y471500D01*
X372375Y460125D02*
X402375Y490125D01*
X464000Y486500D02*
Y494000D01*
X464500Y421500D02*
Y448250D01*
X426250Y486500D02*
X464500Y448250D01*
X432000Y438750D02*
X444250D01*
X799611Y427184D02*
X800213D01*
D24*
X461500Y309000D02*
X571500D01*
X671500Y324000D02*
X684000Y336500D01*
Y469000D01*
X690000Y475000D01*
X704250D01*
X685000Y450000D02*
X704250D01*
X714874Y277875D02*
X727999Y291000D01*
X713750Y279000D02*
X714874Y277875D01*
X876250Y376250D02*
Y461500D01*
X849000Y349000D02*
X876250Y376250D01*
X824657Y349000D02*
X849000D01*
X811527Y362130D02*
X824657Y349000D01*
X384310Y440190D02*
X392250Y432250D01*
X340310Y440190D02*
X384310D01*
X392250Y432250D02*
X401000D01*
X314000Y466500D02*
X340310Y440190D01*
X432000Y409500D02*
Y419250D01*
D26*
X396500Y337500D02*
Y389352D01*
X391500Y394352D02*
X396500Y389352D01*
X634000Y280500D02*
Y309000D01*
X571500D02*
X634000D01*
Y337500D01*
X571500Y296000D02*
Y309000D01*
X784000Y379000D02*
X792750Y370250D01*
X760716Y379000D02*
X784000D01*
X735159Y404556D02*
X760716Y379000D01*
X391500Y394352D02*
Y420497D01*
X396753Y425750D01*
X876250Y491500D02*
Y514274D01*
X792750Y370250D02*
X796500Y374000D01*
X789000Y366500D02*
X792750Y370250D01*
X789000Y362029D02*
Y366500D01*
Y362029D02*
X800213Y350816D01*
X396753Y425750D02*
X401000D01*
X799657Y374000D02*
X811527Y362130D01*
X796500Y374000D02*
X799657D01*
X591500Y469000D02*
Y497500D01*
Y440500D02*
Y469000D01*
X571500Y371500D02*
X591500Y391500D01*
Y440500D01*
Y497500D02*
X638500D01*
X654000Y482000D01*
X347000Y309000D02*
X396500D01*
X334000Y296000D02*
X347000Y309000D01*
X396500Y280500D02*
Y309000D01*
Y337500D01*
D27*
X1066500Y469000D02*
D03*
X1041500Y301500D02*
D03*
D28*
Y469000D02*
D03*
X1066500Y301500D02*
D03*
D29*
X301500Y401500D02*
D03*
Y376100D02*
D03*
D30*
X1109000Y389000D02*
D03*
Y364000D02*
D03*
D31*
Y414000D02*
D03*
D32*
X274000Y389000D02*
D03*
D33*
X461500Y309000D02*
D03*
D34*
X401500Y411500D02*
D03*
X356500Y414000D02*
D03*
X384000Y389000D02*
D03*
X411500D02*
D03*
X384000Y449000D02*
D03*
Y426500D02*
D03*
X379000Y414000D02*
D03*
X314000Y466500D02*
D03*
D35*
X634000Y309000D02*
D03*
X754000Y386500D02*
D03*
X591500Y469000D02*
D03*
X571500Y371500D02*
D03*
D36*
X671500Y324000D02*
D03*
X889000Y286500D02*
D03*
X736000Y461000D02*
D03*
X737155Y437845D02*
D03*
X836844Y358655D02*
D03*
X462750Y349000D02*
D03*
X716500Y334000D02*
D03*
X704000Y319000D02*
D03*
X727999Y291000D02*
D03*
X811500Y279000D02*
D03*
X791500Y291500D02*
D03*
X779000Y389000D02*
D03*
X791500Y406500D02*
D03*
X774000Y401500D02*
D03*
X349000Y506500D02*
D03*
D37*
X416500Y435000D02*
D03*
Y423000D02*
D03*
D38*
X709000Y431250D02*
D03*
Y416750D02*
D03*
D39*
X859250Y319000D02*
D03*
X873750D02*
D03*
X859250Y296500D02*
D03*
X873750D02*
D03*
Y434000D02*
D03*
X859250D02*
D03*
X351750Y456500D02*
D03*
X366250D02*
D03*
D40*
X951500Y489000D02*
D03*
X931500Y498500D02*
D03*
Y479500D02*
D03*
D41*
X941500Y436500D02*
D03*
Y341500D02*
D03*
D42*
X591500Y497500D02*
D03*
X634000Y280500D02*
D03*
X396500D02*
D03*
D43*
X568500Y440500D02*
D03*
X591500D02*
D03*
X614500D02*
D03*
X657000Y337500D02*
D03*
X634000D02*
D03*
X611000D02*
D03*
X419500D02*
D03*
X396500D02*
D03*
X373500D02*
D03*
D44*
X334000Y296000D02*
D03*
Y322000D02*
D03*
X654000Y482000D02*
D03*
Y456000D02*
D03*
X571500Y296000D02*
D03*
Y322000D02*
D03*
D45*
X828497Y398899D02*
D03*
X822840Y404556D02*
D03*
X817184Y410213D02*
D03*
X811527Y415870D02*
D03*
X805870Y421527D02*
D03*
X800213Y427184D02*
D03*
X794556Y432840D02*
D03*
X788899Y438497D02*
D03*
X729502Y379100D02*
D03*
X735159Y373444D02*
D03*
X740816Y367787D02*
D03*
X746473Y362130D02*
D03*
X752130Y356473D02*
D03*
X757787Y350816D02*
D03*
X763444Y345159D02*
D03*
X769100Y339502D02*
D03*
D46*
Y438497D02*
D03*
X763444Y432840D02*
D03*
X757787Y427184D02*
D03*
X752130Y421527D02*
D03*
X746473Y415870D02*
D03*
X740816Y410213D02*
D03*
X735159Y404556D02*
D03*
X729502Y398899D02*
D03*
X788899Y339502D02*
D03*
X794556Y345159D02*
D03*
X800213Y350816D02*
D03*
X805870Y356473D02*
D03*
X811527Y362130D02*
D03*
X817184Y367787D02*
D03*
X822840Y373444D02*
D03*
X828497Y379100D02*
D03*
D47*
X483000Y421500D02*
D03*
X464500D02*
D03*
X349750Y399000D02*
D03*
X368250D02*
D03*
D48*
X416500Y429000D02*
D03*
D49*
X432000Y419250D02*
D03*
Y425750D02*
D03*
Y432250D02*
D03*
Y438750D02*
D03*
X401000D02*
D03*
Y432250D02*
D03*
Y425750D02*
D03*
Y419250D02*
D03*
D50*
X1137798Y262798D02*
X1144000Y269000D01*
X470202Y262798D02*
X1137798D01*
X419500Y313500D02*
X470202Y262798D01*
X1133476Y514524D02*
X1144000Y504000D01*
X1041500Y514524D02*
X1133476D01*
X1041500Y469000D02*
Y514524D01*
X572798D02*
X1041500D01*
X568500Y510226D02*
X572798Y514524D01*
X568500Y440500D02*
Y510226D01*
X419500Y313500D02*
Y337500D01*
X1144000Y269000D02*
Y504000D01*
D51*
X657000Y262000D02*
Y337500D01*
M02*
